<?xml version="1.0" encoding="UTF-8"?>
<svg id="svg-border-top" class="db" viewBox="0 0 2973.628 321.96">
    <path class="red-fill" d="M1 322.96V124.984c9.276.517 18.073 2.684 26.171 7.411 1.261.735 2.821.938 4.197 1.501 4.87 1.995 10.162 3.361 14.492 6.191 12.546 8.203 24.707 16.995 37.01 25.569 13.112 9.136 26.212 18.286 39.371 27.467 1.173-.803 2.165-1.396 3.062-2.108 14.479-11.508 28.745-23.293 43.461-34.488 21.569-16.41 41.061-35.523 64.635-49.341 10.746-6.299 21.527-5.83 31.453 2.257 28.68 23.366 57.351 46.743 86.035 70.102 5.261 4.283 10.576 8.502 16.34 13.131 2.359-3.191 4.591-5.849 6.427-8.756 16.368-25.917 33.729-51.289 48.596-78.044 9.205-16.566 38.793-19.661 51.556-8.118 25.322 22.9 51.889 44.423 77.952 66.503 1.341 1.137 2.774 2.164 4.135 3.219.943-.797 1.491-1.182 1.947-1.655 24.118-25.121 48.306-50.176 72.287-75.428 5.895-6.208 12.584-9.808 21.191-9.055 6.981.609 12.339 4.597 17.469 8.995 25.427 21.8 50.887 43.564 76.343 65.33 1.232 1.054 2.551 2.004 3.97 3.111 1.044-1.123 1.876-1.912 2.586-2.799 13.648-17.035 27.364-34.017 40.832-51.194 2.057-2.625 2.898-6.187 4.398-9.268 2.302-4.731 3.892-10.089 7.179-14.013 13.247-15.815 38.5-15.777 54.43-.45 4.557 4.384 9.104 8.801 13.921 12.888 19.568 16.603 39.236 33.085 58.878 49.6 1.115.938 2.332 1.754 3.673 2.753.938-1.075 1.74-1.885 2.421-2.787 10.647-14.093 21.387-28.118 31.825-42.363 2.17-2.962 3.126-6.794 4.793-10.151 2.201-4.431 3.835-9.397 6.963-13.071 11.796-13.852 32.837-13.008 46.286 1.417 3.521 3.775 6.858 7.737 10.561 11.323 19.75 19.128 39.585 38.168 59.4 57.229 1.749 1.683 3.556 3.302 5.576 5.173 2.605-3.208 4.757-5.942 7-8.601 22.944-27.213 42.543-57.134 67.72-82.577 11.674-11.798 25.404-12.861 37.692-1.271a53108.11 53108.11 0 0 0 75.364 70.91c5.454 5.124 5.467 5.032 11.817.752 25.557-17.223 51.098-34.465 76.716-51.597 13.433-8.982 30.269-8.236 42.78 1.661 19.341 15.301 38.712 30.563 57.957 45.983 2.671 2.14 4.364 2.375 7.208.137 19.905-15.658 39.82-31.314 60.114-46.46 4.46-3.329 10.377-6.221 15.758-6.473 9.568-.447 19.085 1.236 27.484 7.194 17.521 12.429 35.353 24.422 53.07 36.571 9.169 6.287 18.37 12.527 27.653 18.854 2.354-2.108 4.354-3.855 6.305-5.656 25.343-23.395 50.656-46.819 76.026-70.183 9.271-8.537 22.181-9.922 31.073-2.727 6.037 4.885 11.886 10.286 16.714 16.336 16.521 20.703 32.548 41.801 48.779 62.736 4.571 5.898 9.2 11.752 14.045 17.937 1.738-1.545 3.129-2.698 4.427-3.947 24.245-23.328 48.52-46.624 72.702-70.018 17.853-17.271 45.896-11.269 51.692 11.478 1.418 5.563 3.816 10.119 7.123 14.524 5.998 7.995 11.886 16.073 17.849 24.096 4.626 6.224 9.296 12.415 13.858 18.504.873-.39 1.225-.464 1.468-.668 25.017-20.968 49.961-42.023 75.095-62.849 4.427-3.668 9.27-7.41 14.568-9.35 24.823-9.09 46.09 6.367 48.235 25.787.237 2.143 1.624 4.362 3 6.141 11.011 14.231 22.138 28.374 33.25 42.527 3.351 4.266 6.77 8.479 10.353 12.96 13.917-11.644 27.317-22.848 40.709-34.063 14.434-12.087 28.729-24.345 43.326-36.229 11.643-9.479 24.797-8.691 34.473 1.592 14.501 15.408 28.944 30.868 43.438 46.281 10.247 10.897 20.537 21.753 31.065 32.899 1.74-1.362 3.183-2.436 4.565-3.582 26.412-21.914 52.723-43.952 79.261-65.711 15.957-13.084 38.969-9.018 49.749 8.422 16.202 26.215 32.356 52.459 48.6 78.649 1.877 3.025 4.184 5.782 6.374 8.776 1.503-1.075 2.329-1.611 3.095-2.222a168560.87 168560.87 0 0 0 62.504-49.894c12.629-10.085 25.249-20.182 37.877-30.269 8.057-6.438 16.991-8.794 26.559-4.204 6.258 3.001 12.48 6.497 17.865 10.831 31.012 24.967 61.808 50.201 92.549 75.5 3.078 2.534 5.087 2.921 8.525.534a6459.526 6459.526 0 0 1 71.365-48.82c3.938-2.658 8.47-4.501 12.87-6.389 3.622-1.554 7.574-2.349 11.175-3.944 9.83-4.355 19.9-6.182 30.588-4.205v183.131h-7.662c-986.031 0-1972.062 0-2958.092.005-2.498.005-4.996.065-7.495.096z"></path>
</svg>
